{
  "moduleFileExtensions": ["js", "json", "ts"],
  "rootDir": "../",
  "roots": ["src","test"],
  "testEnvironment": "node",
  "testRegex": ".*\\.e2e\\.spec\\.ts$",
  "transform": {
    "^.+\\.(t|j)s$": "ts-jest"
  }
}
